{
  "selfDescriptionCredential": {
    "@context": [
      "http://www.w3.org/ns/shacl#",
      "http://www.w3.org/2001/XMLSchema#",
      "https://registry.gaia-x.eu/api/v2206/shape/files?file=resource&type=ttl#",
      "https://registry.gaia-x.eu/api/v2206/shape/files?file=participant&type=ttl#",
      "https://registry.gaia-x.eu/api/v2206/shape/files?file=service-offering&type=ttl#"
    ],
    "id": "https://arlabdevelopments.com/.well-known/infrastructure-v2206/VpsM.json",
    "type": [
      "VerifiableCredential",
      "ServiceOfferingExperimental",
      "VirtualResource"
    ],
    "credentialSubject": {
      "id": "https://arlabdevelopments.com/.well-known/infrastructure-v2206/VpsM.json",
      "gx-service-offering:providedBy": "https://arlabdevelopments.com/.well-known/ArsysParticipant-v2206.json",
      "gx-service-offering:name": "VPS XL",
      "gx-service-offering:description": "Arsys Private Virtual Server - M Model",
      "gx-service-offering:ramsize": {
        "gx-service-offering:Value": "4",
        "gx-service-offering:Unit": "GB"
      },
      "gx-service-offering:disk": {
        "gx-service-offering:Value": "80",
        "gx-service-offering:Unit": "GB",
        "gx-service-offering:description": "SSD (Solid State Drives)"
      },
      "gx-service-offering:cpu": {
        "gx-service-offering:Value": "2",
        "gx-service-offering:description": "vCPU Intel Xeon"
      },
      "gx-service-offering:bandwidth": {
        "gx-service-offering:Value": "400",
        "gx-service-offering:Unit": "Mbps"
      },
      "gx-service-offering:webAddress": "https://www.arsys.net/servers/vps",
      "gx-service-offering:hostedOn": [
        "https://arlabdevelopments.com/.well-known/datacenter-v2206/serviceDatacenterEs.json"
      ],
      "gx-service-offering:termsAndConditions": [
        {
          "gx-service-offering:url": "https://www.arsys.net/legal",
          "gx-service-offering:hash": "70cf73cbb47217865004ae15949348f65272dda4da862e54c6b83615e8256809"
        }
      ],
      "gx-service-offering:dataProtectionRegime": [
        "GDPR2016"
      ],
      "gx-service-offering:gdpr": [
        {
          "gx-service-offering:url": "https://www.arsys.net/terms/personal-data-protection",
          "gx-service-offering:hash": "1c38521fd3f205e582b129d4a642d94a73aee78aec7656127b8c71bc8d252a79"
        }
      ],
      "gx-service-offering:dataExport": [
        {
          "gx-service-offering:requestType": "emails",
          "gx-service-offering:accessType": "digital",
          "gx-service-offering:formatType": "mime/png"
        },
        {
          "gx-service-offering:requestType": "API",
          "gx-service-offering:accessType": "digital",
          "gx-service-offering:formatType": "application/json"
        },
        {
          "gx-service-offering:requestType": "webform",
          "gx-service-offering:accessType": "digital",
          "gx-service-offering:formatType": "text/html"
        }
      ]
    },
    "proof": {
      "type": "JsonWebKey2020",
      "created": "2022-08-16T11:58:32.063Z",
      "proofPurpose": "assertionMethod",
      "verificationMethod": "did:web:arlabdevelopments.com",
      "jws": "eyJhbGciOiJQUzI1NiIsImI2NCI6ZmFsc2UsImNyaXQiOlsiYjY0Il19..S96JCrNKDK_wjj0ey9p_vlLWFoXcLdl9VldJ2KMDv_AIpDuDOtuxKdEZb9OohwEirQF6drNBCBUE--5YGQQ8aGleAh6KucpZgFOvuJUMlEDmjQbFido5lwTojf1wFlhVoEw3FKYC4kGEussBWaumch-8ZzTVjP_-YRWJVXCEa-wQa5zm-SPswKDKH33ytU0SVPwyUj5NC6qCag7X27febtOODVxGcnoLDpWKvDr1NoOJYMd8TFsGCLjJQyvqe70S627k82d6CYgs0Hp4duqcpJEmRIP51lfPS-P010brATh6UmTot3vsMGIjL2Hc_EewB_tpyFuACTLQPnTqFz8vIQ"
    }
  },
  "complianceCredential": {
    "@context": [
      "https://www.w3.org/2018/credentials/v1"
    ],
    "type": [
      "VerifiableCredential",
      "ServiceOfferingCredentialExperimental"
    ],
    "id": "https://catalogue.gaia-x.eu/credentials/ServiceOfferingCredentialExperimental/1660651115663",
    "issuer": "did:web:compliance.lab.gaia-x.eu",
    "issuanceDate": "2022-08-16T11:58:35.663Z",
    "credentialSubject": {
      "id": "https://arlabdevelopments.com/.well-known/infrastructure-v2206/VpsM.json",
      "hash": "167f00f11018ea88bdbb13b45d098a35f9154e47f0481528760843de5f215317"
    },
    "proof": {
      "type": "JsonWebKey2020",
      "created": "2022-08-16T11:58:35.663Z",
      "proofPurpose": "assertionMethod",
      "jws": "eyJhbGciOiJQUzI1NiIsImI2NCI6ZmFsc2UsImNyaXQiOlsiYjY0Il19..Iw2XFu_7Oo1SvqeTMP_EMSILBJgTuAu8gUwrPxQB1AkJSK_1lPu4RUDVdPvpmnYqDvbuBOSPk0NTQLfFtXReYYoQICdkYZgQiKrggPZVG2AzuiKw8duPbjhfFF80IgSS_JcE8qK1HHoP129D5l5JIHLonfZIBcfaG8mc2euLTP5B1jVyvwbb38fzgs7FtipssdNJnRLjNSLmEb7C0ROC48U2dFUvv5qojSEsLYNQa0B_-Qj14JkD0OvwltEfUHSb3iaKNng3CsLBRgoAjs-auU8b9bf8usBgC9dk9Rz5QKXVKhdHn_RuOvhqRQoVQPvouTP9QnfP_ZMpMgHnTGqQug",
      "verificationMethod": "did:web:compliance.lab.gaia-x.eu"
    }
  }
}