{
  "selfDescriptionCredential": {
    "@context": [
      "http://www.w3.org/ns/shacl#",
      "http://www.w3.org/2001/XMLSchema#",
      "http://w3id.org/gaia-x/resource#",
      "http://w3id.org/gaia-x/participant#",
      "http://w3id.org/gaia-x/service-offering#"
    ],
    "@id": "https://arlabdevelopments.com/.well-known/infrastructure/VpsM.json",
    "@type": [
      "VerifiableCredential",
      "ServiceOfferingExperimental"
    ],
    "credentialSubject": {
      "id": "https://arlabdevelopments.com/.well-known/infrastructure/VpsM.json",
      "gx-service-offering:providedBy": {
        "@type": "xsd:string",
        "@value": "https://arlabdevelopments.com/.well-known/ArsysLab.json"
      },
      "gx-service-offering:name": {
        "@value": "VPS M",
        "@type": "xsd:string"
      },
      "gx-service-offering:description": {
        "@value": "Arsys Private Virtual Server - M Model",
        "@type": "xsd:string"
      },
      "gx-service-offering:ramsize": {
        "@type": "gx-service-offering:measure",
        "gx-service-offering:Value": {
          "@value": "4",
          "@type": "xsd:int"
        },
        "gx-service-offering:Unit": {
          "@value": "GB",
          "@type": "xsd:string"
        }
      },
      "gx-service-offering:disk": {
        "@type": "gx-service-offering:measure",
        "gx-service-offering:Value": {
          "@value": "80",
          "@type": "xsd:int"
        },
        "gx-service-offering:Unit": {
          "@value": "GB",
          "@type": "xsd:string"
        },
        "gx-service-offering:description": {
          "@value": "SSD (Solid State Drives)",
          "@type": "xsd:string"
        }
      },
      "gx-service-offering:cpu": {
        "@type": "gx-service-offering:measure",
        "gx-service-offering:Value": {
          "@value": "2",
          "@type": "xsd:int"
        },
        "gx-service-offering:description": {
          "@value": "vCPU Intel Xeon",
          "@type": "xsd:string"
        }
      },
      "gx-service-offering:hostedOn": [
        {
          "@type": "xsd:string",
          "@value": "https://arlabdevelopments.com/.well-known/datacenter/serviceDatacenterEs.json"
        }
      ],
      "gx-service-offering:gdpr": [
        {
          "@type": "xsd:anyURI",
          "gx-service-offering:imprint": "https://www.arsys.es/legal"
        },
        {
          "@type": "xsd:anyURI",
          "gx-service-offering:privacyPolicy": "https://www.arsys.net/terms/personal-data-protection"
        }
      ]
    },
    "proof": {
      "type": "JsonWebKey2020",
      "created": "2022-07-25T10:51:20.238Z",
      "proofPurpose": "assertionMethod",
      "verificationMethod": "did:web:arlabdevelopments.com",
      "jws": "eyJhbGciOiJQUzI1NiIsImI2NCI6ZmFsc2UsImNyaXQiOlsiYjY0Il19..j9EX8jw4EKn7Fyd2VnlLF1Pel5_e7VFULlGKctYRbs-riIOohKG3tOdDM9QMZezC7SF23IMfqWbSeER5BfKIgUPtpgiGcV0undz4z23J8YZ1U6BNaPmbI9jNMyfZtNkpyoIEQIaU94fz7G9tjlcQUlfkpFP7RmyHz5RzC4ktBhL6F4XH-S-6Ct8M3F6ChUw_tN488XaW1rLjHSuYxMzaowGjPlP8LE6Os6fwbokEZoiN0g5XoO1jSpnS1W6GcIdMfQ8dPG-U3MoELZvUWtuduu5W7rhTdrmwroCIuxMZgksL5HJRdzBArfAbrgjrcIj2KovcHbUlaKMNtnQ-NmDZ4w"
    }
  },
  "complianceCredential": {
    "@context": [
      "https://www.w3.org/2018/credentials/v1"
    ],
    "@type": [
      "VerifiableCredential",
      "ServiceOfferingCredentialExperimental"
    ],
    "id": "https://catalogue.gaia-x.eu/credentials/ServiceOfferingCredentialExperimental/1658746286133",
    "issuer": "did:web:compliance.gaia-x.eu",
    "issuanceDate": "2022-07-25T10:51:26.133Z",
    "credentialSubject": {
      "id": "https://arlabdevelopments.com/.well-known/infrastructure/VpsM.json",
      "hash": "a6b355279dcce248ed3241e2a5f92934b025d718b11428dccab9d31766e15bc7"
    },
    "proof": {
      "type": "JsonWebKey2020",
      "created": "2022-07-25T10:51:26.133Z",
      "proofPurpose": "assertionMethod",
      "jws": "eyJhbGciOiJQUzI1NiIsImI2NCI6ZmFsc2UsImNyaXQiOlsiYjY0Il19..Im9l-3OYwEYy3tSEC945dOGAvifLU-d_MLytijIQKRutRqlOmyLp1TZcbGw0-C3z27jszr2lK16_GqwUmeBDt3qmS7Np5IySTRL_BtyOQ74A0cSD1J_oLliNUqMAaVNSQnV6ayI2uDb2aXn4716OZWjAGxJrAmjgaQWcM_2ggxdI6a1q5cEcbExqfNpUY8jkVfBJCObIKtKQL4OOXEeBZU8SThrid5vVRR-9HvJLBO30F7YyD3JWqB9GZaSmQ53bsrc833G8shdXRmd4GDDc9D2z3C0AwhixlTmevl7pZaV_DGfq6ETJE5sl262CL83sGJ55bmeQKWCLpDmdPVmFbA",
      "verificationMethod": "did:web:compliance.gaia-x.eu"
    }
  }
}