{
  "selfDescriptionCredential": {
    "@context": [
      "http://www.w3.org/ns/shacl#",
      "http://www.w3.org/2001/XMLSchema#",
      "http://w3id.org/gaia-x/resource#",
      "http://w3id.org/gaia-x/participant#",
      "http://w3id.org/gaia-x/service-offering#"
    ],
    "@id": "https://arlabdevelopments.com/.well-known/images/imageServiceCentos7.json",
    "@type": [
      "VerifiableCredential",
      "ServiceOfferingExperimental",
      "virtualResource"
    ],
    "credentialSubject": {
      "id": "https://arlabdevelopments.com/.well-known/images/imageServiceCentos7.json",
      "gx-service-offering:providedBy": {
        "@type": "xsd:string",
        "@value": "https://arlabdevelopments.com/.well-known/ArsysLab.json"
      },
      "gx-service-offering:name": {
        "@value": "CentOS 7 minimal system (64 bit)",
        "@type": "xsd:string"
      },
      "gx-service-offering:description": {
        "@value": "CentOS 7 minimal system (64 bit)",
        "@type": "xsd:string"
      },
      "gx-service-offering:architecture": {
        "@value": "64",
        "@type": "xsd:string"
      },
      "gx-service-offering:copyrightOwnedBy": {
        "@type": "xsd:string",
        "@value": "https://arlabdevelopments.com/.well-known/ArsysLab.json"
      },
      "gx-service-offering:hostedOn": [
        {
          "@type": "xsd:string",
          "@value": "https://arlabdevelopments.com/.well-known/infrastructure/AdvancedCloudM.json"
        },
        {
          "@type": "xsd:string",
          "@value": "https://arlabdevelopments.com/.well-known/infrastructure/baremetalIx6S.json"
        },
        {
          "@type": "xsd:string",
          "@value": "https://arlabdevelopments.com/.well-known/infrastructure/ProCloud.json"
        },
        {
          "@type": "xsd:string",
          "@value": "https://arlabdevelopments.com/.well-known/infrastructure/VpsM.json"
        },
        {
          "@type": "xsd:string",
          "@value": "https://arlabdevelopments.com/.well-known/infrastructure/VpsXL.json"
        }
      ],
      "gx-service-offering:maintainedBy": {
        "@type": "xsd:anyURI",
        "@value": "https://www.centos.org/"
      },
      "gx-service-offering:gdpr": [
        {
          "@type": "xsd:anyURI",
          "gx-service-offering:imprint": "https://www.arsys.es/legal"
        },
        {
          "@type": "xsd:anyURI",
          "gx-service-offering:privacyPolicy": "https://www.arsys.net/terms/personal-data-protection"
        }
      ]
    },
    "proof": {
      "type": "JsonWebKey2020",
      "created": "2022-07-28T09:33:24.531Z",
      "proofPurpose": "assertionMethod",
      "verificationMethod": "did:web:arlabdevelopments.com",
      "jws": "eyJhbGciOiJQUzI1NiIsImI2NCI6ZmFsc2UsImNyaXQiOlsiYjY0Il19..FhPRc4SaXm_CfXMyx72uvBDbwpPf8FYTrVXjbaWyVoE3mIegvzbN0u-RBTVBlvzPmq2QO7MTYfMu_G3Nucnc_eYMVDZxjtiqD63COmB4keU77Y5YijybTeKoBkOYh0Zv2ZmrPR2lBGXgJKxCAC_CFUMjP7ckeaaK1gVwB5NKAVBkX5Lsm5e0T0lXCEmBFBdYHcmExqWTGxv_sedeSsIEf8LIHQskn-_qdPoV28cFrCm1NapGXIQilkkPnCi1BSrsQQ7hkCxd7xqN6saPBgZ_P-74MVdcCQ-aF15znQNrHzQITeCJi3DHiBI8KSxwzG7byPA09QFCxw49IS7f-uJmDg"
    }
  },
  "complianceCredential": {
    "@context": [
      "https://www.w3.org/2018/credentials/v1"
    ],
    "@type": [
      "VerifiableCredential",
      "ServiceOfferingCredentialExperimental"
    ],
    "id": "https://catalogue.gaia-x.eu/credentials/ServiceOfferingCredentialExperimental/1659000810534",
    "issuer": "did:web:compliance.gaia-x.eu",
    "issuanceDate": "2022-07-28T09:33:30.535Z",
    "credentialSubject": {
      "id": "https://arlabdevelopments.com/.well-known/images/imageServiceCentos7.json",
      "hash": "5fc2e60a4ec55b8fd2010640ef32c413a5e01b9e08f1833b4626e78d83a64edf"
    },
    "proof": {
      "type": "JsonWebKey2020",
      "created": "2022-07-28T09:33:30.535Z",
      "proofPurpose": "assertionMethod",
      "jws": "eyJhbGciOiJQUzI1NiIsImI2NCI6ZmFsc2UsImNyaXQiOlsiYjY0Il19..MYD7Nx4vXHDIWz3aIJs-BX8UwcIRY6WM8iTn6NGDTG2tybdOEiet_TbXiNC9Zrp3IsBwjrk4KuYoPbpByDdcKgZ_Fqt9ii3p45XLmMfNkbmQ-U8Las9duOtLothBNloyOjJZJVXHn2cjp3TlGycDdQdjg__mIZmcTqBxyP6WmVrGFFTk4_Xg0LiAc-osKuogmwBIhyoAhiYaDw_TT0BkytASwvHKBmTkg3g3FY53IQWfwVAYZybwx0gMqm79jN9BMQAwgWB5vb2lR9adKUfcjndzkz8es0zFWVBpfWHuKIoSmLRpbyxt0SfLJ4g3HKKE_GX2PF-9NTiRPggyaC_7sA",
      "verificationMethod": "did:web:compliance.gaia-x.eu"
    }
  }
}